{
  "type": "content",
  "modid": "bricklayers",
  "name": "Bricklayers",
  "description" : "Bricks and stones may break bones.",
  "authors": [ "Tels", "Phiwa" ],
  "contributors": [ "jjalli1", "MisterAndyDandy", "Neurion" ],
  "translators": [ "Craluminum", "Darce", "Dracomancer", "Drakker", "Macoto Hino" ],
  "version": "3.0.0-pre.4",
  "dependencies": {
	"game": "1.20.0",
	"survival": "1.20.0",
	"em": "3.1.0"
  },
  "website": "https://gitlab.com/codesmiths/vs_bricklayers"
}
