{
	"ingredient": { "type": "item", "code": "game:clay-*", "name": "color", "allowedVariants": [ "lavender", "paleblue", "palegreen", "palered", "peach", "sunflower", "white" ] },
	"pattern": [[
		"############",
		"############",
		"############",
		"############",
		"############",
		"############",
		"############",
		"############",
		"############",
		"############",
		"############",
		"############"
	],
	[
		"############",
		"#__________#",
		"#__________#",
		"#__________#",
		"#__________#",
		"#__________#",
		"#__________#",
		"#__________#",
		"#__________#",
		"#__________#",
		"#__________#",
		"############"
	],
	[
		"############",
		"#__________#",
		"#__________#",
		"#__________#",
		"#__________#",
		"#__________#",
		"#__________#",
		"#__________#",
		"#__________#",
		"#__________#",
		"#__________#",
		"############"
	],
	[
		"############",
		"#__________#",
		"#__________#",
		"#__________#",
		"#__________#",
		"#__________#",
		"#__________#",
		"#__________#",
		"#__________#",
		"#__________#",
		"#__________#",
		"############"
	],
	[
		"############",
		"#__________#",
		"#__________#",
		"#__________#",
		"#__________#",
		"#__________#",
		"#__________#",
		"#__________#",
		"#__________#",
		"#__________#",
		"#__________#",
		"############"
	],
	[
		"############",
		"#__________#",
		"#__________#",
		"#__________#",
		"#__________#",
		"#__________#",
		"#__________#",
		"#__________#",
		"#__________#",
		"#__________#",
		"#__________#",
		"############"
	],
	[
		"############",
		"#__________#",
		"#__________#",
		"#__________#",
		"#__________#",
		"#__________#",
		"#__________#",
		"#__________#",
		"#__________#",
		"#__________#",
		"#__________#",
		"############"
	],
	[
		"############",
		"#__________#",
		"#__________#",
		"#__________#",
		"#__________#",
		"#__________#",
		"#__________#",
		"#__________#",
		"#__________#",
		"#__________#",
		"#__________#",
		"############"
	],
	[
		"############",
		"#__________#",
		"#__________#",
		"#__________#",
		"#__________#",
		"#__________#",
		"#__________#",
		"#__________#",
		"#__________#",
		"#__________#",
		"#__________#",
		"############"
	]],
	"name": "recipe-clayforming-colored-planter",
	"output": { "type": "block", "code": "bricklayers:plantercolored-raw-{color}" }
}
