{
	"ingredient": { "type": "item", "code": "game:clay-*", "name": "color", "allowedVariants": [ "black", "blurple", "brown", "darkgrey", "green", "light", "malachite", "orange", "pink", "purple", "yellow" ] },
	"pattern": [[
		"____________",
		"_##########_",
		"_##########_",
		"_##########_",
		"_##########_",
		"_##########_",
		"_##########_",
		"_##########_",
		"_##########_",
		"_##########_",
		"_##########_",
		"____________"
	],
	[
		"____________",
		"_##########_",
		"_##########_",
		"_##########_",
		"_##########_",
		"_##########_",
		"_##########_",
		"_##########_",
		"_##########_",
		"_##########_",
		"_##########_",
		"____________"
	],
	[
		"############",
		"#__________#",
		"#__________#",
		"#__________#",
		"#__________#",
		"#__________#",
		"#__________#",
		"#__________#",
		"#__________#",
		"#__________#",
		"#__________#",
		"############"
	],
	[
		"############",
		"#__________#",
		"#__________#",
		"#__________#",
		"#__________#",
		"#__________#",
		"#__________#",
		"#__________#",
		"#__________#",
		"#__________#",
		"#__________#",
		"############"
	],
	[
		"############",
		"#__________#",
		"#__________#",
		"#__________#",
		"#__________#",
		"#__________#",
		"#__________#",
		"#__________#",
		"#__________#",
		"#__________#",
		"#__________#",
		"############"
	],
	[
		"############",
		"#__________#",
		"#__________#",
		"#__________#",
		"#__________#",
		"#__________#",
		"#__________#",
		"#__________#",
		"#__________#",
		"#__________#",
		"#__________#",
		"############"
	],
	[
		"############",
		"#__________#",
		"#__________#",
		"#__________#",
		"#__________#",
		"#__________#",
		"#__________#",
		"#__________#",
		"#__________#",
		"#__________#",
		"#__________#",
		"############"
	],
	[
		"############",
		"#__________#",
		"#__________#",
		"#__________#",
		"#__________#",
		"#__________#",
		"#__________#",
		"#__________#",
		"#__________#",
		"#__________#",
		"#__________#",
		"############"
	],
	[
		"############",
		"#__________#",
		"#__________#",
		"#__________#",
		"#__________#",
		"#__________#",
		"#__________#",
		"#__________#",
		"#__________#",
		"#__________#",
		"#__________#",
		"############"
	],
	[
		"############",
		"#__________#",
		"#__________#",
		"#__________#",
		"#__________#",
		"#__________#",
		"#__________#",
		"#__________#",
		"#__________#",
		"#__________#",
		"#__________#",
		"############"
	],
	[
		"############",
		"#__________#",
		"#__________#",
		"#__________#",
		"#__________#",
		"#__________#",
		"#__________#",
		"#__________#",
		"#__________#",
		"#__________#",
		"#__________#",
		"############"
	],
	[
		"############",
		"#__________#",
		"#__________#",
		"#__________#",
		"#__________#",
		"#__________#",
		"#__________#",
		"#__________#",
		"#__________#",
		"#__________#",
		"#__________#",
		"############"
	],
	[
		"____________",
		"_##########_",
		"_#________#_",
		"_#________#_",
		"_#________#_",
		"_#________#_",
		"_#________#_",
		"_#________#_",
		"_#________#_",
		"_#________#_",
		"_##########_",
		"____________"
	]],
	"name": "recipe-clayforming-colored-storagevesselbase",
	"output": { "type": "block", "code": "bricklayers:vesselcoloredbase-raw-{color}" }
}
