[
  {
    "op": "add",
    "path": "/ingredients/C/allowedVariants",
    "value": [ "blue", "brown", "black", "darkgrey" ],
    "file": "game:recipes/grid/slabs/mudbrickslab.json",
    "side": "Server"
  },
  {
    "op": "add",
    "path": "/recipeGroup",
    "value": 1,
    "file": "game:recipes/grid/slabs/mudbrickslab.json",
    "side": "Server"
  }
]
