[
  {
    "op": "addeach",
    "path": "/buying/list/-",
    "value": [
	{ "code": "em:powdered-metal-gold", "type": "item", "stacksize": 16, "stock": { "avg": 2, "var": 1 }, "price": { "avg": 3, "var": 0.5 } },
	{ "code": "em:powdered-ore-malachite", "type": "item", "stacksize": 64, "stock": { "avg": 2, "var": 1 }, "price": { "avg": 4, "var": 1 } }
    ],
    "file": "game:config/tradelists/trader-luxuries.json",
    "side": "Server"
  }
]
