[
  {
    "op": "add",
    "path": "/combustibleProps",
    "value": {
	"meltingPoint": 1000,
	"meltingDuration": 14,
	"smeltedRatio": 3,
	"smeltingType": "convert",
	"smeltedStack": { "type": "item", "code": "bricklayers:cookedbones", "quantity": 2 },
	"requiresContainer": false
    },
    "file": "game:itemtypes/resource/bone.json",
    "side": "Server"
  }
]
