[
	{
	"ingredientPattern": "P,B",
	"ingredients": {
		"P": { "type": "item", "code": "game:pickaxe-*", "isTool": true, "toolDurabilityCost": 2 },
		"B": { "type": "block", "code": "game:stonebricks-*", "name": "rock", "quantity": 1 }
	},
	"width": 1,
	"height": 2,
	"recipeGroup": 3,
	"output": { "type": "item", "code": "game:stonebrick-{rock}", "quantity": 4 }
	},
	{
	"ingredientPattern": "H,B",
	"ingredients": {
		"H": { "type": "item", "code": "game:hammer-*", "isTool": true, "toolDurabilityCost": 2 },
		"B": { "type": "block", "code": "game:stonebricks-*", "name": "rock", "quantity": 1 }
	},
	"width": 1,
	"height": 2,
	"recipeGroup": 3,
	"output": { "type": "item", "code": "game:stonebrick-{rock}", "quantity": 4 }
	}
]
