[
	{
	"ingredientPattern": "P,G",
	"ingredients": {
		"P": { "type": "item", "code": "game:pickaxe-*", "isTool": true, "toolDurabilityCost": 2 },
		"G": { "type": "block", "code": "bricklayers:glasscolored-quartz-*", "name": "color", "quantity": 1 }
	},
	"width": 1,
	"height": 2,
	"recipeGroup": 3,
	"output": { "type": "item", "code": "bricklayers:glassbatch-quartz-{color}", "quantity": 4 }
	},
	{
	"ingredientPattern": "H,G",
	"ingredients": {
		"H": { "type": "item", "code": "game:hammer-*", "isTool": true, "toolDurabilityCost": 2 },
		"G": { "type": "block", "code": "bricklayers:glasscolored-quartz-*", "name": "color", "quantity": 1 }
	},
	"width": 1,
	"height": 2,
	"recipeGroup": 3,
	"output": { "type": "item", "code": "bricklayers:glassbatch-quartz-{color}", "quantity": 4 }
	}
]
