[
	{
	"ingredientPattern": "CSC,GLG",
	"ingredients": {
		"G": { "type": "item",  "code": "game:drygrass", "quantity": 2 },
		"C": { "type": "item",  "code": "game:clay-*", "name": "clay", "allowedVariants": [ "fire", "yellow", "light", "white" ] },
		"L": { "type": "block", "code": "game:soil-low-none" },
		"S": { "type": "block", "code": "game:sand-*" }
	},
	"name": "mudbrickslablight",
	"recipeGroup": 1,
	"width": 3,
	"height": 2,
	"output": { "type": "block", "code": "game:mudbrickslab-light-down-free", "quantity": 4 }
	},

	{
	"ingredientPattern": "CSC,GLG",
	"ingredients": {
		"G": { "type": "item",  "code": "game:drygrass", "quantity": 2 },
		"C": { "type": "item",  "code": "game:clay-*", "name": "clay", "allowedVariants": [ "fire", "yellow", "light", "white" ] },
		"L": { "type": "block", "code": "game:soil-medium-none" },
		"S": { "type": "block", "code": "game:sand-*" }
	},
	"name": "mudbrickslablight",
	"recipeGroup": 1,
	"width": 3,
	"height": 2,
	"output": { "type": "block", "code": "game:mudbrickslab-light-down-free", "quantity": 4 }
	},

	{
	"ingredientPattern": "CLC,G_G",
	"ingredients": {
		"G": { "type": "item",  "code": "game:drygrass", "quantity": 2 },
		"C": { "type": "item",  "code": "game:clay-*", "name": "clay", "allowedVariants": [ "blue", "brown", "black", "darkgrey" ] },
		"L": { "type": "block", "code": "game:soil-medium-none" }
	},
	"name": "mudbrickslabdark",
	"recipeGroup": 1,
	"width": 3,
	"height": 2,
	"output": { "type": "block", "code": "game:mudbrickslab-dark-down-free", "quantity": 4 }
	}
]
